# https://check.torproject.org/torbulkexitlist + https://www.dan.me.uk/torlist/?exit
# 21 September 2024
Tor Exit:102.130.113.9
Tor Exit:102.130.117.167
Tor Exit:102.130.127.117
Tor Exit:102.208.216.155
Tor Exit:103.109.101.105
Tor Exit:103.126.161.54
Tor Exit:103.163.218.11
Tor Exit:103.164.54.199
Tor Exit:103.174.253.222
Tor Exit:103.186.0.144
Tor Exit:103.196.37.111
Tor Exit:103.208.86.5
Tor Exit:103.251.167.10
Tor Exit:103.251.167.20
Tor Exit:103.28.52.93
Tor Exit:104.167.242.116-104.167.242.118
Tor Exit:104.192.1.138
Tor Exit:104.192.3.74
Tor Exit:104.193.135.243
Tor Exit:104.219.232.126
Tor Exit:104.219.236.100
Tor Exit:104.223.118.59
Tor Exit:104.244.72.115
Tor Exit:104.244.72.132
Tor Exit:104.244.73.136
Tor Exit:104.244.73.190
Tor Exit:104.244.73.193
Tor Exit:104.244.73.43
Tor Exit:104.244.74.23
Tor Exit:104.244.74.97
Tor Exit:104.244.75.74
Tor Exit:104.244.77.192
Tor Exit:104.244.77.208
Tor Exit:104.244.78.162
Tor Exit:104.244.78.233
Tor Exit:104.244.79.44
Tor Exit:104.244.79.50
Tor Exit:104.244.79.61
Tor Exit:107.174.138.172
Tor Exit:107.189.10.175
Tor Exit:107.189.11.111
Tor Exit:107.189.11.113
Tor Exit:107.189.1.160
Tor Exit:107.189.1.167
Tor Exit:107.189.1.175
Tor Exit:107.189.1.198
Tor Exit:107.189.12.3
Tor Exit:107.189.12.7
Tor Exit:107.189.12.88
Tor Exit:107.189.13.180
Tor Exit:107.189.13.251
Tor Exit:107.189.13.253-107.189.13.254
Tor Exit:107.189.13.91
Tor Exit:107.189.14.106
Tor Exit:107.189.14.4
Tor Exit:107.189.14.43
Tor Exit:107.189.1.80
Tor Exit:107.189.1.9
Tor Exit:107.189.2.108
Tor Exit:107.189.2.206
Tor Exit:107.189.29.103
Tor Exit:107.189.29.184
Tor Exit:107.189.30.236
Tor Exit:107.189.30.49
Tor Exit:107.189.30.69
Tor Exit:107.189.30.86
Tor Exit:107.189.3.11
Tor Exit:107.189.31.187
Tor Exit:107.189.31.232
Tor Exit:107.189.31.33
Tor Exit:107.189.3.148
Tor Exit:107.189.3.249
Tor Exit:107.189.3.94
Tor Exit:107.189.4.12
Tor Exit:107.189.4.158
Tor Exit:107.189.4.209
Tor Exit:107.189.5.121
Tor Exit:107.189.5.18-107.189.5.19
Tor Exit:107.189.5.7
Tor Exit:107.189.6.124
Tor Exit:107.189.6.36
Tor Exit:107.189.7.114
Tor Exit:107.189.7.141
Tor Exit:107.189.7.144
Tor Exit:107.189.7.161
Tor Exit:107.189.7.168
Tor Exit:107.189.7.47
Tor Exit:107.189.8.133
Tor Exit:107.189.8.136
Tor Exit:107.189.8.16
Tor Exit:107.189.8.181
Tor Exit:107.189.8.226
Tor Exit:107.189.8.238
Tor Exit:107.189.8.5
Tor Exit:107.189.8.56
Tor Exit:107.189.8.65
Tor Exit:107.189.8.70
Tor Exit:108.181.124.143
Tor Exit:108.181.16.251
Tor Exit:108.181.27.205
Tor Exit:108.181.69.243
Tor Exit:108.61.158.147
Tor Exit:108.61.189.136
Tor Exit:109.169.33.163
Tor Exit:109.248.147.137
Tor Exit:109.69.67.17
Tor Exit:109.70.100.1-109.70.100.6
Tor Exit:109.70.100.65-109.70.100.71
Tor Exit:114.35.245.150
Tor Exit:118.163.74.160
Tor Exit:123.253.35.32
Tor Exit:125.212.241.131
Tor Exit:128.127.180.156
Tor Exit:128.31.0.13
Tor Exit:130.193.10.21
Tor Exit:130.193.15.186
Tor Exit:130.193.15.79
Tor Exit:13.126.132.195
Tor Exit:135.125.233.127
Tor Exit:136.244.111.163
Tor Exit:138.59.18.110
Tor Exit:139.162.249.209
Tor Exit:139.99.172.11
Tor Exit:139.99.8.57
Tor Exit:141.239.146.142
Tor Exit:141.98.11.131
Tor Exit:141.98.11.62
Tor Exit:141.98.119.106
Tor Exit:142.171.12.88
Tor Exit:142.44.133.81
Tor Exit:142.44.234.69
Tor Exit:143.110.156.176
Tor Exit:144.172.118.4
Tor Exit:144.172.118.55
Tor Exit:144.172.118.57
Tor Exit:144.24.197.112
Tor Exit:146.185.253.130
Tor Exit:146.59.35.246
Tor Exit:146.59.35.38
Tor Exit:146.70.121.124
Tor Exit:146.70.164.210
Tor Exit:146.70.81.186
Tor Exit:147.45.116.145
Tor Exit:147.45.78.34
Tor Exit:148.113.152.91
Tor Exit:149.202.79.101
Tor Exit:149.202.79.129
Tor Exit:149.56.22.133
Tor Exit:149.56.44.47
Tor Exit:151.80.148.159
Tor Exit:15.204.224.241
Tor Exit:15.204.238.148
Tor Exit:154.16.116.61
Tor Exit:154.213.185.133
Tor Exit:154.213.185.165
Tor Exit:154.213.185.183
Tor Exit:154.213.185.185
Tor Exit:154.213.185.230
Tor Exit:154.213.185.254
Tor Exit:154.26.159.157
Tor Exit:154.40.44.183
Tor Exit:154.64.224.27
Tor Exit:155.138.161.171
Tor Exit:155.94.192.114
Tor Exit:156.67.111.146
Tor Exit:160.119.249.240
Tor Exit:162.216.18.62
Tor Exit:162.247.72.192
Tor Exit:162.247.72.199
Tor Exit:162.247.74.200-162.247.74.202
Tor Exit:162.247.74.204
Tor Exit:162.247.74.206
Tor Exit:162.247.74.213
Tor Exit:162.247.74.216
Tor Exit:162.247.74.27
Tor Exit:162.247.74.7
Tor Exit:162.251.5.152
Tor Exit:163.172.45.102
Tor Exit:163.5.143.76
Tor Exit:164.132.172.209
Tor Exit:164.90.148.60
Tor Exit:165.73.242.163
Tor Exit:166.70.207.2
Tor Exit:171.25.193.20
Tor Exit:171.25.193.234-171.25.193.235
Tor Exit:171.25.193.25
Tor Exit:171.25.193.77-171.25.193.80
Tor Exit:172.104.164.133
Tor Exit:172.104.176.218
Tor Exit:172.104.182.84
Tor Exit:172.105.161.162
Tor Exit:172.105.237.238
Tor Exit:172.232.173.127
Tor Exit:172.234.228.174
Tor Exit:172.81.131.110-172.81.131.111
Tor Exit:172.81.131.139
Tor Exit:172.81.131.156
Tor Exit:172.81.132.94
Tor Exit:173.0.3.111
Tor Exit:173.249.57.253
Tor Exit:173.255.198.243
Tor Exit:176.118.193.106
Tor Exit:176.118.193.33
Tor Exit:176.124.221.200
Tor Exit:176.126.253.190
Tor Exit:176.58.100.98
Tor Exit:176.58.121.177
Tor Exit:176.97.114.182
Tor Exit:176.97.114.202
Tor Exit:178.17.170.144
Tor Exit:178.17.170.23
Tor Exit:178.17.171.102
Tor Exit:178.17.174.14
Tor Exit:178.17.174.164
Tor Exit:178.175.131.141
Tor Exit:178.175.142.26
Tor Exit:178.175.148.209
Tor Exit:178.175.148.245-178.175.148.246
Tor Exit:178.20.55.16
Tor Exit:178.20.55.182
Tor Exit:178.218.144.18
Tor Exit:178.218.144.51
Tor Exit:178.218.144.96
Tor Exit:178.218.144.99
Tor Exit:179.43.128.16
Tor Exit:179.43.159.194-179.43.159.201
Tor Exit:179.43.159.78
Tor Exit:179.43.167.195
Tor Exit:179.43.182.232
Tor Exit:179.43.182.58
Tor Exit:180.150.226.99
Tor Exit:184.105.48.40
Tor Exit:185.100.85.132
Tor Exit:185.100.85.22-185.100.85.23
Tor Exit:185.100.87.136
Tor Exit:185.100.87.139
Tor Exit:185.100.87.166
Tor Exit:185.100.87.174
Tor Exit:185.100.87.253
Tor Exit:185.100.87.41
Tor Exit:185.10.16.41
Tor Exit:185.106.102.102
Tor Exit:185.106.94.195
Tor Exit:185.107.57.64-185.107.57.66
Tor Exit:185.107.69.86
Tor Exit:185.112.144.11
Tor Exit:185.112.146.167
Tor Exit:185.113.128.30
Tor Exit:185.126.117.21
Tor Exit:185.129.61.1
Tor Exit:185.129.61.10
Tor Exit:185.129.61.129
Tor Exit:185.129.61.2-185.129.61.9
Tor Exit:185.129.62.62-185.129.62.63
Tor Exit:185.130.44.108
Tor Exit:185.130.44.43
Tor Exit:185.130.44.59
Tor Exit:185.130.47.58
Tor Exit:185.132.53.12
Tor Exit:185.141.147.128-185.141.147.129
Tor Exit:185.142.239.49
Tor Exit:185.146.232.234
Tor Exit:185.153.197.227
Tor Exit:185.154.110.142
Tor Exit:185.154.110.17
Tor Exit:185.165.169.239
Tor Exit:185.165.169.42
Tor Exit:185.165.171.84
Tor Exit:185.165.190.111
Tor Exit:185.170.114.25
Tor Exit:185.183.157.214
Tor Exit:185.183.159.40
Tor Exit:185.191.204.254
Tor Exit:185.193.158.134
Tor Exit:185.193.52.180
Tor Exit:185.195.237.238
Tor Exit:185.195.71.10-185.195.71.12
Tor Exit:185.195.71.2
Tor Exit:185.195.71.244
Tor Exit:185.195.71.3-185.195.71.9
Tor Exit:185.207.107.130
Tor Exit:185.207.107.216
Tor Exit:185.216.68.52
Tor Exit:185.220.100.240-185.220.100.255
Tor Exit:185.220.101.0-185.220.101.1
Tor Exit:185.220.101.10
Tor Exit:185.220.101.100-185.220.101.109
Tor Exit:185.220.101.11
Tor Exit:185.220.101.110
Tor Exit:185.220.101.12
Tor Exit:185.220.101.128-185.220.101.129
Tor Exit:185.220.101.13
Tor Exit:185.220.101.130-185.220.101.139
Tor Exit:185.220.101.14
Tor Exit:185.220.101.140-185.220.101.149
Tor Exit:185.220.101.15
Tor Exit:185.220.101.150-185.220.101.151
Tor Exit:185.220.101.153-185.220.101.159
Tor Exit:185.220.101.16
Tor Exit:185.220.101.161-185.220.101.169
Tor Exit:185.220.101.17
Tor Exit:185.220.101.170-185.220.101.179
Tor Exit:185.220.101.18
Tor Exit:185.220.101.180-185.220.101.189
Tor Exit:185.220.101.19
Tor Exit:185.220.101.190-185.220.101.191
Tor Exit:185.220.101.2
Tor Exit:185.220.101.20-185.220.101.29
Tor Exit:185.220.101.3
Tor Exit:185.220.101.30-185.220.101.39
Tor Exit:185.220.101.4
Tor Exit:185.220.101.40-185.220.101.49
Tor Exit:185.220.101.5
Tor Exit:185.220.101.50-185.220.101.59
Tor Exit:185.220.101.6
Tor Exit:185.220.101.60-185.220.101.69
Tor Exit:185.220.101.7
Tor Exit:185.220.101.70-185.220.101.79
Tor Exit:185.220.101.8
Tor Exit:185.220.101.80-185.220.101.89
Tor Exit:185.220.101.9
Tor Exit:185.220.101.90
Tor Exit:185.220.101.96-185.220.101.99
Tor Exit:185.220.103.4-185.220.103.9
Tor Exit:185.225.226.181
Tor Exit:185.225.69.203
Tor Exit:185.225.69.232
Tor Exit:185.227.134.106
Tor Exit:185.227.68.78
Tor Exit:185.233.100.23
Tor Exit:185.241.208.115
Tor Exit:185.241.208.196
Tor Exit:185.241.208.202
Tor Exit:185.241.208.204
Tor Exit:185.241.208.206
Tor Exit:185.241.208.232
Tor Exit:185.241.208.236
Tor Exit:185.241.208.243
Tor Exit:185.241.208.28
Tor Exit:185.241.208.54
Tor Exit:185.241.208.71
Tor Exit:185.241.208.81
Tor Exit:185.243.23.81
Tor Exit:185.244.192.175
Tor Exit:185.244.192.184
Tor Exit:185.246.128.161
Tor Exit:185.246.188.149
Tor Exit:185.246.188.73-185.246.188.74
Tor Exit:185.246.189.130
Tor Exit:185.246.189.77
Tor Exit:185.246.189.99
Tor Exit:185.246.85.69
Tor Exit:185.246.86.197
Tor Exit:185.247.184.105
Tor Exit:185.247.184.33
Tor Exit:185.247.224.143
Tor Exit:185.252.232.218
Tor Exit:185.254.196.141
Tor Exit:185.34.33.2
Tor Exit:185.35.202.222
Tor Exit:185.38.175.133
Tor Exit:185.39.207.83
Tor Exit:185.40.4.100-185.40.4.101
Tor Exit:185.40.4.132
Tor Exit:185.40.4.149
Tor Exit:185.40.4.29
Tor Exit:185.40.4.38
Tor Exit:185.40.4.92
Tor Exit:185.40.4.94-185.40.4.95
Tor Exit:185.42.170.203
Tor Exit:185.56.171.94
Tor Exit:185.56.83.83
Tor Exit:185.67.82.114
Tor Exit:185.7.33.146
Tor Exit:185.82.219.109
Tor Exit:185.91.116.202
Tor Exit:188.165.200.97
Tor Exit:188.172.229.15
Tor Exit:188.214.104.21
Tor Exit:188.244.106.81
Tor Exit:188.253.112.49
Tor Exit:188.253.7.106
Tor Exit:188.253.7.63
Tor Exit:188.68.41.191
Tor Exit:188.68.49.235
Tor Exit:188.68.52.231
Tor Exit:190.103.179.98
Tor Exit:190.120.229.98
Tor Exit:190.211.254.97
Tor Exit:192.108.48.150
Tor Exit:192.42.116.13-192.42.116.15
Tor Exit:192.42.116.17
Tor Exit:192.42.116.173-192.42.116.179
Tor Exit:192.42.116.18
Tor Exit:192.42.116.180-192.42.116.187
Tor Exit:192.42.116.19
Tor Exit:192.42.116.191-192.42.116.199
Tor Exit:192.42.116.20
Tor Exit:192.42.116.200-192.42.116.203
Tor Exit:192.42.116.208-192.42.116.219
Tor Exit:192.42.116.22-192.42.116.28
Tor Exit:192.99.149.111
Tor Exit:192.99.168.180
Tor Exit:193.105.134.150
Tor Exit:193.105.134.155
Tor Exit:193.106.248.134
Tor Exit:193.142.147.233
Tor Exit:193.142.147.69
Tor Exit:193.182.96.246
Tor Exit:193.189.100.194-193.189.100.206
Tor Exit:193.218.118.133
Tor Exit:193.218.118.155
Tor Exit:193.218.118.173
Tor Exit:193.218.118.178
Tor Exit:193.218.118.182
Tor Exit:193.218.118.188
Tor Exit:193.218.118.89
Tor Exit:193.233.133.109
Tor Exit:193.26.115.43
Tor Exit:193.26.115.61
Tor Exit:193.30.120.139
Tor Exit:193.36.38.17
Tor Exit:193.70.80.213
Tor Exit:194.15.112.133
Tor Exit:194.15.113.118
Tor Exit:194.15.115.212
Tor Exit:194.163.157.49
Tor Exit:194.164.122.21
Tor Exit:194.26.192.161
Tor Exit:194.26.192.77
Tor Exit:194.62.248.21
Tor Exit:195.160.220.104
Tor Exit:195.176.3.19-195.176.3.20
Tor Exit:195.176.3.23-195.176.3.24
Tor Exit:195.80.151.242
Tor Exit:195.88.74.206
Tor Exit:198.251.84.163
Tor Exit:198.251.84.237
Tor Exit:198.251.88.18
Tor Exit:198.251.89.96
Tor Exit:198.46.235.206
Tor Exit:198.50.191.95
Tor Exit:198.54.132.139
Tor Exit:198.58.107.53
Tor Exit:198.96.155.3
Tor Exit:198.98.48.31
Tor Exit:198.98.48.33
Tor Exit:198.98.48.35
Tor Exit:198.98.50.199
Tor Exit:198.98.50.215
Tor Exit:198.98.51.189
Tor Exit:198.98.51.249
Tor Exit:198.98.51.52
Tor Exit:198.98.52.24
Tor Exit:198.98.53.136
Tor Exit:198.98.54.49
Tor Exit:198.98.60.90
Tor Exit:199.195.248.184
Tor Exit:199.195.249.214
Tor Exit:199.195.250.165
Tor Exit:199.195.250.18
Tor Exit:199.195.250.46
Tor Exit:199.195.251.119
Tor Exit:199.195.251.148
Tor Exit:199.195.251.202
Tor Exit:199.195.251.78
Tor Exit:199.195.253.124
Tor Exit:199.195.253.156
Tor Exit:199.195.253.180
Tor Exit:199.195.253.247
Tor Exit:199.7.140.230
Tor Exit:200.122.181.2
Tor Exit:201.23.12.101
Tor Exit:201.23.14.225
Tor Exit:201.23.16.249
Tor Exit:202.182.99.129
Tor Exit:202.61.226.98
Tor Exit:204.137.14.104-204.137.14.106
Tor Exit:204.137.14.92
Tor Exit:204.194.29.4
Tor Exit:204.8.156.142
Tor Exit:204.85.191.7-204.85.191.9
Tor Exit:204.8.96.100-204.8.96.123
Tor Exit:204.8.96.140-204.8.96.189
Tor Exit:204.8.96.64-204.8.96.89
Tor Exit:205.185.113.180
Tor Exit:205.185.116.34
Tor Exit:205.185.117.149
Tor Exit:205.185.119.35
Tor Exit:205.185.121.170
Tor Exit:205.185.123.93
Tor Exit:205.185.124.176
Tor Exit:205.185.124.193
Tor Exit:205.185.127.231
Tor Exit:207.188.137.212
Tor Exit:207.192.70.250
Tor Exit:209.141.32.181
Tor Exit:209.141.32.198
Tor Exit:209.141.36.191
Tor Exit:209.141.37.94
Tor Exit:209.141.46.203
Tor Exit:209.141.51.180
Tor Exit:209.141.51.30
Tor Exit:209.141.54.203
Tor Exit:209.141.55.26
Tor Exit:209.141.59.116
Tor Exit:209.141.60.219
Tor Exit:209.141.62.71
Tor Exit:212.21.66.6
Tor Exit:212.69.167.80
Tor Exit:212.73.134.204
Tor Exit:212.95.50.77
Tor Exit:212.95.52.76
Tor Exit:213.252.140.118
Tor Exit:213.95.149.22
Tor Exit:216.239.90.19
Tor Exit:216.73.159.101
Tor Exit:216.73.159.75
Tor Exit:217.12.221.131
Tor Exit:217.146.2.41
Tor Exit:217.197.107.138
Tor Exit:217.79.189.239
Tor Exit:23.129.64.131-23.129.64.150
Tor Exit:23.129.64.171-23.129.64.173
Tor Exit:23.129.64.211-23.129.64.230
Tor Exit:23.130.136.194-23.130.136.195
Tor Exit:23.137.248.100
Tor Exit:23.137.250.83
Tor Exit:23.137.253.108
Tor Exit:23.137.253.110
Tor Exit:23.137.253.27
Tor Exit:23.152.24.77
Tor Exit:23.153.248.33-23.153.248.34
Tor Exit:23.154.177.10-23.154.177.19
Tor Exit:23.154.177.2
Tor Exit:23.154.177.20-23.154.177.29
Tor Exit:23.154.177.3
Tor Exit:23.154.177.30-23.154.177.31
Tor Exit:23.154.177.4-23.154.177.9
Tor Exit:23.155.24.4
Tor Exit:23.155.8.104
Tor Exit:23.94.211.25
Tor Exit:23.94.37.53
Tor Exit:24.240.72.170
Tor Exit:2.56.10.36
Tor Exit:2.57.214.194-2.57.214.197
Tor Exit:2.57.214.221
Tor Exit:2.58.56.220
Tor Exit:2.58.56.248
Tor Exit:2.58.56.35
Tor Exit:2.58.56.43
Tor Exit:2.58.56.90
Tor Exit:27.255.75.198
Tor Exit:3.108.196.136
Tor Exit:31.129.22.65
Tor Exit:31.133.0.210
Tor Exit:31.42.185.134
Tor Exit:35.0.127.52
Tor Exit:37.114.41.119
Tor Exit:37.120.239.59
Tor Exit:37.187.5.192
Tor Exit:37.187.74.97
Tor Exit:37.205.8.220
Tor Exit:37.228.129.128
Tor Exit:37.228.129.5
Tor Exit:37.228.129.63
Tor Exit:37.252.254.33
Tor Exit:37.252.255.135
Tor Exit:37.48.120.196
Tor Exit:37.48.70.156
Tor Exit:38.97.116.244
Tor Exit:45.11.59.28
Tor Exit:45.118.133.44
Tor Exit:45.12.3.80
Tor Exit:45.128.133.242
Tor Exit:45.129.199.195
Tor Exit:45.129.84.246-45.129.84.249
Tor Exit:45.131.65.34
Tor Exit:45.132.246.245
Tor Exit:45.134.225.36
Tor Exit:45.135.132.20
Tor Exit:45.137.205.138
Tor Exit:45.137.205.140
Tor Exit:45.138.16.107
Tor Exit:45.138.16.113
Tor Exit:45.138.16.178
Tor Exit:45.138.16.213
Tor Exit:45.138.16.222
Tor Exit:45.138.16.230
Tor Exit:45.138.16.240
Tor Exit:45.138.16.249
Tor Exit:45.138.16.42
Tor Exit:45.138.16.76
Tor Exit:45.139.122.176-45.139.122.179
Tor Exit:45.141.215.110-45.141.215.111
Tor Exit:45.141.215.114
Tor Exit:45.141.215.116
Tor Exit:45.141.215.167
Tor Exit:45.141.215.169
Tor Exit:45.141.215.17
Tor Exit:45.141.215.19
Tor Exit:45.141.215.21
Tor Exit:45.141.215.40
Tor Exit:45.141.215.56
Tor Exit:45.141.215.61-45.141.215.63
Tor Exit:45.141.215.80-45.141.215.81
Tor Exit:45.141.215.88
Tor Exit:45.141.215.90
Tor Exit:45.141.215.95
Tor Exit:45.141.215.97
Tor Exit:45.148.10.111
Tor Exit:45.148.10.169
Tor Exit:45.15.157.177
Tor Exit:45.155.76.108
Tor Exit:45.155.76.226
Tor Exit:45.61.185.172
Tor Exit:45.61.186.203
Tor Exit:45.61.187.200
Tor Exit:45.66.35.10
Tor Exit:45.66.35.20-45.66.35.22
Tor Exit:45.66.35.35
Tor Exit:45.79.144.222
Tor Exit:45.80.158.205
Tor Exit:45.80.158.23
Tor Exit:45.80.158.27
Tor Exit:45.82.13.237
Tor Exit:45.8.22.207
Tor Exit:45.83.104.137
Tor Exit:45.90.4.235
Tor Exit:45.9.148.113
Tor Exit:45.94.31.180
Tor Exit:45.94.31.68
Tor Exit:45.95.169.130
Tor Exit:45.95.169.223-45.95.169.229
Tor Exit:45.95.169.255
Tor Exit:45.95.202.48
Tor Exit:46.165.243.36
Tor Exit:46.182.21.248
Tor Exit:46.232.251.191
Tor Exit:46.234.47.105
Tor Exit:46.38.255.27
Tor Exit:47.243.99.161
Tor Exit:47.76.187.86
Tor Exit:49.51.172.44
Tor Exit:5.104.86.6
Tor Exit:51.15.116.168
Tor Exit:51.15.59.15
Tor Exit:51.195.166.174
Tor Exit:51.222.136.218
Tor Exit:51.222.142.67
Tor Exit:51.222.84.46
Tor Exit:51.38.113.118
Tor Exit:51.38.225.46
Tor Exit:51.38.81.135
Tor Exit:51.81.222.62
Tor Exit:51.81.254.14-51.81.254.15
Tor Exit:51.81.254.3
Tor Exit:51.81.33.188
Tor Exit:5.181.80.107
Tor Exit:5.182.86.212
Tor Exit:51.89.153.112
Tor Exit:51.91.18.151
Tor Exit:5.196.8.113
Tor Exit:5.196.95.34
Tor Exit:5.255.100.219
Tor Exit:5.255.100.227
Tor Exit:5.255.100.26
Tor Exit:5.255.102.43
Tor Exit:5.255.103.235
Tor Exit:5.255.104.202
Tor Exit:5.255.104.239
Tor Exit:5.255.111.64
Tor Exit:5.255.114.171
Tor Exit:5.255.115.58
Tor Exit:5.255.117.56
Tor Exit:5.255.118.183
Tor Exit:5.255.118.244
Tor Exit:5.255.120.205
Tor Exit:5.255.121.71
Tor Exit:5.255.123.158
Tor Exit:5.255.123.164
Tor Exit:5.255.124.150
Tor Exit:5.255.125.196
Tor Exit:5.255.125.41
Tor Exit:5.255.127.222
Tor Exit:5.255.96.218
Tor Exit:5.255.97.221
Tor Exit:5.255.98.151
Tor Exit:5.255.98.198
Tor Exit:5.255.98.23
Tor Exit:5.255.99.108
Tor Exit:5.255.99.124
Tor Exit:5.255.99.147
Tor Exit:5.255.99.5
Tor Exit:5.2.67.226
Tor Exit:5.2.72.110
Tor Exit:5.2.79.190
Tor Exit:5.34.182.203
Tor Exit:5.42.80.232-5.42.80.235
Tor Exit:54.36.101.21
Tor Exit:54.36.209.253-54.36.209.254
Tor Exit:5.45.102.93
Tor Exit:5.45.104.176
Tor Exit:5.45.98.162
Tor Exit:5.79.66.19
Tor Exit:62.171.137.169
Tor Exit:62.182.83.214
Tor Exit:62.182.84.146
Tor Exit:64.227.115.78
Tor Exit:64.227.159.148
Tor Exit:64.7.198.32
Tor Exit:66.146.193.33
Tor Exit:66.183.173.29
Tor Exit:66.220.242.222
Tor Exit:67.219.109.141
Tor Exit:71.19.144.106
Tor Exit:71.19.144.222
Tor Exit:72.14.179.10
Tor Exit:72.211.49.235
Tor Exit:72.5.42.204
Tor Exit:72.5.42.207
Tor Exit:74.82.47.194
Tor Exit:77.105.146.42
Tor Exit:77.220.196.253
Tor Exit:77.221.152.105
Tor Exit:77.221.157.237
Tor Exit:77.221.159.184
Tor Exit:77.221.159.189
Tor Exit:77.221.159.192-77.221.159.193
Tor Exit:77.221.159.75
Tor Exit:77.37.3.7
Tor Exit:77.48.28.193
Tor Exit:77.48.28.237
Tor Exit:77.48.28.239
Tor Exit:77.81.247.72
Tor Exit:77.83.246.112
Tor Exit:77.91.85.147
Tor Exit:77.91.86.95
Tor Exit:77.91.87.79
Tor Exit:78.142.18.219
Tor Exit:78.153.131.39
Tor Exit:79.124.8.241
Tor Exit:79.137.198.213
Tor Exit:80.210.78.252
Tor Exit:80.241.60.207
Tor Exit:80.67.167.81
Tor Exit:80.67.172.162
Tor Exit:80.78.25.97
Tor Exit:80.78.26.122
Tor Exit:80.82.78.14
Tor Exit:80.94.92.106
Tor Exit:81.16.33.42
Tor Exit:81.17.28.95
Tor Exit:82.115.6.76-82.115.6.78
Tor Exit:82.118.242.62
Tor Exit:82.153.138.119
Tor Exit:8.218.9.41
Tor Exit:82.197.182.161
Tor Exit:82.221.128.191
Tor Exit:82.221.131.5
Tor Exit:82.221.139.190
Tor Exit:82.85.247.254
Tor Exit:83.217.9.73
Tor Exit:83.96.213.63
Tor Exit:83.97.20.77
Tor Exit:84.16.224.227
Tor Exit:84.19.182.20
Tor Exit:84.211.225.54
Tor Exit:84.247.165.51
Tor Exit:84.252.120.163
Tor Exit:85.119.82.142
Tor Exit:85.17.9.83
Tor Exit:85.239.41.130
Tor Exit:85.93.218.204
Tor Exit:86.104.73.167
Tor Exit:86.205.5.107
Tor Exit:87.118.110.27
Tor Exit:87.118.116.103
Tor Exit:87.118.116.90
Tor Exit:87.118.122.30
Tor Exit:87.118.122.51
Tor Exit:87.120.254.132
Tor Exit:88.80.20.86
Tor Exit:89.147.108.90
Tor Exit:89.147.110.118
Tor Exit:89.147.110.154
Tor Exit:89.147.110.202
Tor Exit:89.147.110.82
Tor Exit:89.147.111.124
Tor Exit:89.147.111.87
Tor Exit:89.185.85.140
Tor Exit:89.213.174.248
Tor Exit:89.234.157.254
Tor Exit:89.236.112.100
Tor Exit:89.37.95.34
Tor Exit:89.58.18.210
Tor Exit:89.58.26.216
Tor Exit:89.58.41.156
Tor Exit:89.58.41.251
Tor Exit:89.58.63.200
Tor Exit:91.103.253.141
Tor Exit:91.132.144.59
Tor Exit:91.139.160.150
Tor Exit:91.14.228.28
Tor Exit:91.202.5.104
Tor Exit:91.203.144.194
Tor Exit:91.203.145.116
Tor Exit:91.206.26.26
Tor Exit:91.208.75.153
Tor Exit:91.208.75.156
Tor Exit:91.208.75.178
Tor Exit:91.208.75.239
Tor Exit:91.208.75.3-91.208.75.4
Tor Exit:91.210.59.57
Tor Exit:91.219.236.101
Tor Exit:91.219.237.39
Tor Exit:91.219.237.56
Tor Exit:91.219.239.166
Tor Exit:91.92.109.126
Tor Exit:91.92.109.43
Tor Exit:91.92.252.98
Tor Exit:92.243.24.163
Tor Exit:92.246.138.145
Tor Exit:92.246.84.133
Tor Exit:93.123.12.112
Tor Exit:93.185.165.211
Tor Exit:93.95.228.125
Tor Exit:93.95.228.205
Tor Exit:93.95.230.165
Tor Exit:93.95.231.14
Tor Exit:93.95.231.88
Tor Exit:93.99.104.128
Tor Exit:93.99.104.18
Tor Exit:93.99.104.194-93.99.104.195
Tor Exit:93.99.104.40
Tor Exit:94.102.51.15
Tor Exit:94.142.241.194
Tor Exit:94.142.244.16
Tor Exit:94.143.231.53
Tor Exit:94.158.246.65
Tor Exit:94.16.112.22
Tor Exit:94.16.115.121
Tor Exit:94.16.116.81
Tor Exit:94.16.116.86
Tor Exit:94.16.121.226
Tor Exit:94.16.121.91
Tor Exit:94.177.106.54
Tor Exit:94.228.163.25
Tor Exit:94.228.169.70
Tor Exit:94.230.208.147-94.230.208.148
Tor Exit:94.232.249.147
Tor Exit:94.32.66.15
Tor Exit:94.75.225.81
Tor Exit:95.128.43.164
Tor Exit:95.142.161.63
Tor Exit:95.143.193.125
Tor Exit:95.211.244.28
Tor Exit:96.126.98.146
Tor Exit:96.27.198.133
Tor Exit:96.66.15.152
Tor Exit:98.128.173.33
# IPv6
Tor Exit:2001;0470;0001;0908;0000;0000;0000;9001
Tor Exit:2001;0620;20d0;0000;0000;0000;0000;0019
Tor Exit:2001;0620;20d0;0000;0000;0000;0000;0020
Tor Exit:2001;0620;20d0;0000;0000;0000;0000;0023
Tor Exit:2001;0620;20d0;0000;0000;0000;0000;0024
Tor Exit:2001;0638;0301;f732;0000;0000;0000;0150
Tor Exit:2001;067c;06ec;0203;0192;0042;0116;0173
Tor Exit:2001;067c;06ec;0203;0192;0042;0116;0174
Tor Exit:2001;067c;06ec;0203;0192;0042;0116;0175
Tor Exit:2001;067c;06ec;0203;0192;0042;0116;0176
Tor Exit:2001;067c;06ec;0203;0192;0042;0116;0177
Tor Exit:2001;067c;06ec;0203;0192;0042;0116;0178
Tor Exit:2001;067c;06ec;0203;0192;0042;0116;0179
Tor Exit:2001;067c;06ec;0203;0192;0042;0116;0180
Tor Exit:2001;067c;06ec;0203;0192;0042;0116;0181
Tor Exit:2001;067c;06ec;0203;0192;0042;0116;0182
Tor Exit:2001;067c;06ec;0203;0192;0042;0116;0183
Tor Exit:2001;067c;06ec;0203;0192;0042;0116;0184
Tor Exit:2001;067c;06ec;0203;0192;0042;0116;0185
Tor Exit:2001;067c;06ec;0203;0192;0042;0116;0186
Tor Exit:2001;067c;06ec;0203;0192;0042;0116;0187
Tor Exit:2001;067c;06ec;0203;0192;0042;0116;0191
Tor Exit:2001;067c;06ec;0203;0192;0042;0116;0192
Tor Exit:2001;067c;06ec;0203;0192;0042;0116;0193
Tor Exit:2001;067c;06ec;0203;0192;0042;0116;0194
Tor Exit:2001;067c;06ec;0203;0192;0042;0116;0195
Tor Exit:2001;067c;06ec;0203;0192;0042;0116;0196
Tor Exit:2001;067c;06ec;0203;0192;0042;0116;0197
Tor Exit:2001;067c;06ec;0203;0192;0042;0116;0198
Tor Exit:2001;067c;06ec;0203;0192;0042;0116;0199
Tor Exit:2001;067c;06ec;0203;0192;0042;0116;0200
Tor Exit:2001;067c;06ec;0203;0192;0042;0116;0201
Tor Exit:2001;067c;06ec;0203;0192;0042;0116;0202
Tor Exit:2001;067c;06ec;0203;0192;0042;0116;0203
Tor Exit:2001;067c;06ec;0203;0192;0042;0116;0208
Tor Exit:2001;067c;06ec;0203;0192;0042;0116;0209
Tor Exit:2001;067c;06ec;0203;0192;0042;0116;0210
Tor Exit:2001;067c;06ec;0203;0192;0042;0116;0211
Tor Exit:2001;067c;06ec;0203;0192;0042;0116;0212
Tor Exit:2001;067c;06ec;0203;0192;0042;0116;0213
Tor Exit:2001;067c;06ec;0203;0192;0042;0116;0214
Tor Exit:2001;067c;06ec;0203;0192;0042;0116;0215
Tor Exit:2001;067c;06ec;0203;0192;0042;0116;0216
Tor Exit:2001;067c;06ec;0203;0192;0042;0116;0217
Tor Exit:2001;067c;06ec;0203;0192;0042;0116;0218
Tor Exit:2001;067c;06ec;0203;0192;0042;0116;0219
Tor Exit:2001;067c;06ec;0203;0218;33ff;fe44;5513
Tor Exit:2001;067c;06ec;0203;0218;33ff;fe44;5514
Tor Exit:2001;067c;06ec;0203;0218;33ff;fe44;5515
Tor Exit:2001;067c;06ec;0203;0218;33ff;fe44;5517
Tor Exit:2001;067c;06ec;0203;0218;33ff;fe44;5518
Tor Exit:2001;067c;06ec;0203;0218;33ff;fe44;5519
Tor Exit:2001;067c;06ec;0203;0218;33ff;fe44;5520
Tor Exit:2001;067c;06ec;0203;0218;33ff;fe44;5522
Tor Exit:2001;067c;06ec;0203;0218;33ff;fe44;5523
Tor Exit:2001;067c;06ec;0203;0218;33ff;fe44;5524
Tor Exit:2001;067c;06ec;0203;0218;33ff;fe44;5525
Tor Exit:2001;067c;06ec;0203;0218;33ff;fe44;5526
Tor Exit:2001;067c;06ec;0203;0218;33ff;fe44;5527
Tor Exit:2001;067c;06ec;0203;0218;33ff;fe44;5528
Tor Exit:2001;067c;089c;0666;0000;0000;0000;0001
Tor Exit:2001;067c;089c;0702;01ce;01ce;babe;0001
Tor Exit:2001;067c;089c;0702;01ce;01ce;babe;0002
Tor Exit:2001;067c;089c;0702;01ce;01ce;babe;0003
Tor Exit:2001;067c;089c;0702;01ce;01ce;babe;0004
Tor Exit:2001;067c;089c;0702;01ce;01ce;babe;0005
Tor Exit:2001;067c;089c;0702;01ce;01ce;babe;0006
Tor Exit:2001;067c;089c;0702;01ce;01ce;babe;0007
Tor Exit:2001;067c;089c;0702;01ce;01ce;babe;0008
Tor Exit:2001;067c;089c;0702;01ce;01ce;babe;0009
Tor Exit:2001;067c;089c;0702;01ce;01ce;babe;0010
Tor Exit:2001;067c;2044;1905;0000;0000;0000;0026
Tor Exit:2001;067c;2608;0000;0000;0000;0000;0001
Tor Exit:2001;067c;289c;0000;0000;0000;0000;0020
Tor Exit:2001;067c;289c;0000;0000;0000;0000;0025
Tor Exit:2001;067c;289c;0002;0000;0000;0000;0234
Tor Exit:2001;067c;289c;0002;0000;0000;0000;0235
Tor Exit:2001;067c;289c;0004;0000;0000;0000;0077
Tor Exit:2001;067c;289c;0004;0000;0000;0000;0078
Tor Exit:2001;067c;289c;0004;0000;0000;0000;0079
Tor Exit:2001;067c;289c;0004;0000;0000;0000;0080
Tor Exit:2001;0910;1400;0107;0000;0000;0000;0002
Tor Exit:2001;0ac8;0022;0043;0000;0000;20e5;a7d7
Tor Exit:2001;0ac8;008b;0022;0000;0001;9121;1111
Tor Exit:2001;0bc8;1600;472a;0000;0000;0000;0001
Tor Exit:2001;0bc8;1640;03ac;dc00;00ff;fe16;f9b9
Tor Exit:2001;0bf0;0666;0000;0000;0000;0000;0666
Tor Exit:2001;0df7;7400;c10d;0216;3eff;fecd;511a
Tor Exit:2001;0df7;7e80;0100;9f2b;1d15;c713;52ad
Tor Exit:2001;19f0;0005;6dcc;5400;04ff;fefc;09cc
Tor Exit:2001;19f0;5401;266f;5400;04ff;feb9;e92b
Tor Exit:2001;1af8;4060;a01f;0000;0000;0000;12a6
Tor Exit:2001;1af8;4700;a114;0006;0000;0000;0001
Tor Exit:2001;1b60;0002;0001;3935;0104;0000;0001
Tor Exit:2001;1b60;0003;0221;3132;0102;0000;0001
Tor Exit:2001;1b60;0003;0221;4134;0101;0000;0001
Tor Exit:2001;1b60;0003;0239;1003;0103;0000;0001
Tor Exit:2001;1b60;0003;0239;1003;0106;0000;0001
Tor Exit:2001;40e8;0000;f090;0000;0000;0000;0100
Tor Exit:2001;41d0;0002;9161;0000;0000;0000;0001
Tor Exit:2001;41d0;000a;05c0;0000;0000;0000;0001
Tor Exit:2001;41d0;000a;2a61;0000;0000;0000;0001
Tor Exit:2001;41d0;000a;fe22;0000;0000;0000;0001
Tor Exit:2001;41d0;0304;0200;0000;0000;0000;3348
Tor Exit:2001;41d0;0304;0200;0000;0000;0000;9dce
Tor Exit:2001;41d0;0401;3200;0000;0000;0000;3efd
Tor Exit:2001;41d0;0404;0300;0000;0000;0000;0dd2
Tor Exit:2001;41d0;0601;1100;0000;0000;0000;108e
Tor Exit:2001;41d0;0701;1100;0000;0000;0000;38fc
Tor Exit:2001;41d0;0800;1f70;0000;0000;0000;0000
Tor Exit:2001;41d0;0801;2000;0000;0000;0000;15bb
Tor Exit:2001;41d0;1008;20d1;0000;0000;0000;0001
Tor Exit:2001;4b20;0012;f001;0000;0000;0000;0105
Tor Exit:2001;4b98;0dc0;0043;f816;3eff;fe5f;cf14
Tor Exit:2001;4b98;0dc0;0047;0216;3eff;fe3d;888c
Tor Exit:2001;4ba0;fff8;0120;0000;0000;0000;0001
Tor Exit:2001;b011;4002;37fc;0000;0000;0000;000b
Tor Exit:2001;b030;2422;0000;0000;0000;0000;7234
Tor Exit:2400;6180;0100;00d0;0000;0000;002c;3001
Tor Exit:2400;8901;0000;0000;f03c;93ff;fe68;23b3
Tor Exit:2400;8901;0000;0000;f03c;94ff;fe7f;59f6
Tor Exit:2400;8901;0000;0000;f03c;95ff;fe5d;2041
Tor Exit:2400;8902;0000;0000;f03c;91ff;febf;0f72
Tor Exit:2400;d320;2202;5765;0000;0000;0000;0001
Tor Exit:2400;d321;2195;2012;0000;0000;0000;0001
Tor Exit:2401;c080;2000;111f;5400;04ff;fea3;9c02
Tor Exit:2402;1f00;8000;0239;0000;0000;0000;0000
Tor Exit:2402;1f00;8100;0400;0000;0000;0000;0009
Tor Exit:2406;8dc0;6005;0000;0000;0000;97f2;9c02
Tor Exit:2406;da1a;0a96;2f00;9461;57d2;2f87;cb16
Tor Exit:2407;3640;2207;8882;0000;0000;0000;0001
Tor Exit:2600;3c00;0000;0000;f03c;91ff;fe73;f9ba
Tor Exit:2600;3c00;0000;0000;f03c;91ff;fe96;1cd9
Tor Exit:2600;3c00;0000;0000;f03c;95ff;fe5d;8f00
Tor Exit:2600;3c03;0000;0000;f03c;91ff;fe24;47be
Tor Exit:2600;3c03;0000;0000;f03c;95ff;fe5d;0562
Tor Exit:2600;3c0a;0000;0000;f03c;95ff;fe5d;a877
Tor Exit:2600;3c0a;0000;0000;f03c;95ff;fe8d;6977
Tor Exit:2602;02da;0000;0033;5054;00ff;fe6c;39dc
Tor Exit:2602;02da;0000;0034;5054;00ff;fe7e;7c21
Tor Exit:2602;02e5;0000;0000;0000;0000;0000;0104
Tor Exit:2602;02e6;0000;0004;0000;0000;0000;0000
Tor Exit:2602;fc24;0012;81a6;0000;0000;0000;0001
Tor Exit:2602;fc24;0012;a679;0000;0000;0000;0001
Tor Exit:2602;fc24;0019;0030;0000;0000;0000;0001
Tor Exit:2602;fc24;0019;02b4;0000;0000;0000;0001
Tor Exit:2602;fc24;0019;eb06;0000;0000;0000;0001
Tor Exit:2602;fccf;0310;0001;0000;0000;0000;000a
Tor Exit:2602;fccf;0310;0001;0000;0000;0000;000b
Tor Exit:2602;fccf;0310;0001;0000;0000;0000;000c
Tor Exit:2602;fef9;0100;1100;0000;0000;0000;0199
Tor Exit:2603;c026;c102;05ff;2603;c026;c102;05ff
Tor Exit:2604;2dc0;0101;0200;0000;0000;0000;162b
Tor Exit:2604;2dc0;0101;0200;0000;0000;0000;1dd3
Tor Exit:2604;2dc0;0202;0300;0000;0000;0000;0ed3
Tor Exit:2604;6600;0000;0042;0000;0000;0000;0002
Tor Exit:2604;a880;0004;01d0;0000;0000;020e;c000
Tor Exit:2604;b480;0003;0006;0000;0000;0000;0002
Tor Exit:2605;2700;0000;0002;a800;00ff;fe39;0574
Tor Exit:2605;6400;0010;0075;1585;9b71;1c16;b1a1
Tor Exit:2605;6400;0010;012b;1877;e308;72b3;41b0
Tor Exit:2605;6400;0010;016e;e9da;a184;bfe1;e727
Tor Exit:2605;6400;0010;01ab;2605;6400;0010;01ab
Tor Exit:2605;6400;0010;03f9;116c;94a1;a862;dfec
Tor Exit:2605;6400;0010;03f9;2fb4;3d9c;a1bc;73a3
Tor Exit:2605;6400;0010;03f9;42af;65de;583f;49f1
Tor Exit:2605;6400;0010;03f9;8fca;7115;49b6;57fd
Tor Exit:2605;6400;0010;03f9;b9ce;43e8;7a59;6f17
Tor Exit:2605;6400;0010;03f9;bf6e;ca88;3193;7de8
Tor Exit:2605;6400;0010;03f9;c161;156a;847d;1a1d
Tor Exit:2605;6400;0010;03f9;f741;57f7;8f88;b2bd
Tor Exit:2605;6400;0010;044f;0000;0000;0000;0001
Tor Exit:2605;6400;0010;04ed;0001;0001;0001;0001
Tor Exit:2605;6400;0010;058f;8768;8283;1a62;bdc6
Tor Exit:2605;6400;0010;07ce;1211;2284;56a3;1121
Tor Exit:2605;6400;0010;08a2;de49;ffd1;46f5;99a2
Tor Exit:2605;6400;0010;0984;41e7;4ad6;a11e;cdcc
Tor Exit:2605;6400;0010;0aa1;2db8;1c14;2191;4aa8
Tor Exit:2605;6400;0010;1008;1111;1111;1111;1111
Tor Exit:2605;6400;0010;1060;411f;41d8;11fe;716f
Tor Exit:2605;6400;0010;1362;0000;0000;0000;0002
Tor Exit:2605;6400;0020;01a8;f5f2;4a28;b5ed;931d
Tor Exit:2605;6400;0020;03ea;c2a3;1162;7224;e5df
Tor Exit:2605;6400;0020;0482;3920;1829;1839;1293
Tor Exit:2605;6400;0020;0a28;b37e;88e9;caa1;7b9c
Tor Exit:2605;6400;0020;0be7;0000;0000;0000;0001
Tor Exit:2605;6400;0020;0ff9;0000;0000;0000;0001
Tor Exit:2605;6400;0020;1c01;7d33;a5db;c2b9;1092
Tor Exit:2605;6400;0020;2417;0000;0000;0000;0069
Tor Exit:2605;6400;0030;e88d;36fc;7ca1;dff5;1e57
Tor Exit:2605;6400;0030;e948;4cee;191b;1e55;25b3
Tor Exit:2605;6400;0030;ea52;4246;fb82;f36c;8ede
Tor Exit:2605;6400;0030;ea58;51a1;e174;d185;d6f1
Tor Exit:2605;6400;0030;ea86;59b6;d4c6;5192;1a19
Tor Exit:2605;6400;0030;eb71;51b7;4869;7579;3aa1
Tor Exit:2605;6400;0030;ebb6;0532;0acc;0065;0031
Tor Exit:2605;6400;0030;ed0c;b477;4972;756a;2f42
Tor Exit:2605;6400;0030;edc3;0000;0000;0000;0034
Tor Exit:2605;6400;0030;ef7a;391a;8c71;a2f1;9506
Tor Exit:2605;6400;0030;efba;dead;0000;0000;0000
Tor Exit:2605;6400;0030;f08c;45b7;4a99;a154;694e
Tor Exit:2605;6400;0030;f0ed;9151;66ed;6366;5c74
Tor Exit:2605;6400;0030;f174;0000;0000;0000;0000
Tor Exit:2605;6400;0030;f174;0000;0000;0000;0042
Tor Exit:2605;6400;0030;f174;0001;0001;0001;0001
Tor Exit:2605;6400;0030;f174;0001;0002;0003;0004
Tor Exit:2605;6400;0030;f174;0004;0003;0002;0001
Tor Exit:2605;6400;0030;f174;0042;0042;0000;0000
Tor Exit:2605;6400;0030;f174;0042;0042;0042;0000
Tor Exit:2605;6400;0030;f174;0042;0042;0042;0042
Tor Exit:2605;6400;0030;f174;1111;2222;3333;4444
Tor Exit:2605;6400;0030;f174;cafe;0000;0000;0000
Tor Exit:2605;6400;0030;f1fa;f57f;d285;3ed9;ee27
Tor Exit:2605;6400;0030;f307;1712;1a11;9b1c;ab7f
Tor Exit:2605;6400;0030;f307;3aa6;91d4;da12;7eee
Tor Exit:2605;6400;0030;f307;5d12;16d8;1641;2b15
Tor Exit:2605;6400;0030;f307;ba73;e934;5195;accd
Tor Exit:2605;6400;0030;f307;c2bf;d371;75a9;31e6
Tor Exit:2605;6400;0030;f307;ff42;3928;c777;8563
Tor Exit:2605;6400;0030;f32b;7417;ea33;425b;9732
Tor Exit:2605;6400;0030;f32b;8fec;4251;d9d1;1ff5
Tor Exit:2605;6400;0030;f32b;c191;e73e;8bd5;9c61
Tor Exit:2605;6400;0030;f330;61ea;72a8;8aea;fa1f
Tor Exit:2605;6400;0030;f38b;28b3;cd24;51f3;e412
Tor Exit:2605;6400;0030;f414;42ce;c612;dab8;1337
Tor Exit:2605;6400;0030;f440;757e;adf1;55f7;5a31
Tor Exit:2605;6400;0030;f44f;0001;0000;0000;0000
Tor Exit:2605;6400;0030;f49b;e2ee;34f8;c854;6f63
Tor Exit:2605;6400;0030;f4ae;8f7b;cc6e;d1d7;b978
Tor Exit:2605;6400;0030;f503;0000;0000;0000;0001
Tor Exit:2605;6400;0030;f51a;f826;ecfc;47b6;92a9
Tor Exit:2605;6400;0030;f534;ae1d;c3d9;9941;d85e
Tor Exit:2605;6400;0030;f57d;916e;73f8;d5e7;675b
Tor Exit:2605;6400;0030;f5a3;5bb1;af4e;c969;c73e
Tor Exit:2605;6400;0030;f5db;25a1;b884;ef2d;8818
Tor Exit:2605;6400;0030;f623;5a78;29a6;8492;27b0
Tor Exit:2605;6400;0030;f671;3fc7;4bb4;ca18;86fa
Tor Exit:2605;6400;0030;f753;891d;ee77;e97c;741a
Tor Exit:2605;6400;0030;f78b;0000;0000;0000;0002
Tor Exit:2605;6400;0030;f7c0;8511;b113;ca11;9baa
Tor Exit:2605;6400;0030;f7ca;0000;0000;0000;0002
Tor Exit:2605;6400;0030;f7fa;c230;6fe8;a09a;5836
Tor Exit:2605;6400;0030;f805;1e96;b223;fbe5;cfac
Tor Exit:2605;6400;0030;f82f;7de1;3de3;8947;bc6a
Tor Exit:2605;6400;0030;f858;2704;73e1;7085;12ef
Tor Exit:2605;6400;0030;f8b5;620c;dc25;c624;aafd
Tor Exit:2605;6400;0030;f8d5;0000;0000;0000;0001
Tor Exit:2605;6400;0030;f8da;02b2;a293;30ad;506d
Tor Exit:2605;6400;0030;f920;f523;28ef;3617;8b86
Tor Exit:2605;6400;0040;fde8;11c7;119b;aaf9;2722
Tor Exit:2605;6400;0040;fe09;0000;0000;0000;0002
Tor Exit:2605;6400;d814;01b8;0000;0000;0000;0004
Tor Exit:2605;aa80;0000;0009;0000;0000;0000;0003
Tor Exit:2607;5300;0060;566f;0000;0000;0000;0001
Tor Exit:2607;5300;0061;0785;0000;0000;0000;0000
Tor Exit:2607;5300;0061;0785;0001;0002;0003;0004
Tor Exit:2607;5300;0201;3100;0000;0000;0000;535e
Tor Exit:2607;5300;0203;b45b;0000;0000;0000;0000
Tor Exit:2607;5300;0205;0200;0000;0000;0000;163a
Tor Exit:2607;5300;0205;0200;0000;0000;0000;3dde
Tor Exit:2607;5300;0205;0200;0000;0000;0000;4894
Tor Exit:2607;f130;0000;00ed;0216;3cff;febd;3b42
Tor Exit:2607;f530;8002;0000;0000;0000;0000;0019
Tor Exit:2620;0007;6001;0000;0000;0000;0000;0101
Tor Exit:2620;0007;6001;0000;0000;0000;0000;0102
Tor Exit:2620;0007;6001;0000;0000;0000;0000;0103
Tor Exit:2620;0007;6001;0000;0000;0000;0000;0104
Tor Exit:2620;0007;6001;0000;0000;0000;0000;0105
Tor Exit:2620;0007;6001;0000;0000;0000;0000;0106
Tor Exit:2620;0007;6001;0000;0000;0000;0000;0107
Tor Exit:2620;0007;6001;0000;0000;0000;0000;0108
Tor Exit:2620;0007;6001;0000;0000;0000;0000;0109
Tor Exit:2620;0007;6001;0000;0000;0000;0000;0110
Tor Exit:2620;0007;6001;0000;0000;0000;0000;0111
Tor Exit:2620;0007;6001;0000;0000;0000;0000;0112
Tor Exit:2620;0007;6001;0000;0000;0000;0000;0113
Tor Exit:2620;0007;6001;0000;0000;0000;0000;0114
Tor Exit:2620;0007;6001;0000;0000;0000;0000;0115
Tor Exit:2620;0007;6001;0000;0000;0000;0000;0116
Tor Exit:2620;0007;6001;0000;0000;0000;0000;0117
Tor Exit:2620;0007;6001;0000;0000;0000;0000;0118
Tor Exit:2620;0007;6001;0000;0000;0000;0000;0119
Tor Exit:2620;0007;6001;0000;0000;0000;0000;0120
Tor Exit:2620;0007;6001;0000;0000;0000;0000;0121
Tor Exit:2620;0007;6001;0000;0000;0000;0000;0122
Tor Exit:2620;0007;6001;0000;0000;0000;0000;0123
Tor Exit:2620;0007;6001;0000;0000;0000;0000;0140
Tor Exit:2620;0007;6001;0000;0000;0000;0000;0141
Tor Exit:2620;0007;6001;0000;0000;0000;0000;0142
Tor Exit:2620;0007;6001;0000;0000;0000;0000;0143
Tor Exit:2620;0007;6001;0000;0000;0000;0000;0144
Tor Exit:2620;0007;6001;0000;0000;0000;0000;0145
Tor Exit:2620;0007;6001;0000;0000;0000;0000;0146
Tor Exit:2620;0007;6001;0000;0000;0000;0000;0147
Tor Exit:2620;0007;6001;0000;0000;0000;0000;0148
Tor Exit:2620;0007;6001;0000;0000;0000;0000;0149
Tor Exit:2620;0007;6001;0000;0000;0000;0000;0150
Tor Exit:2620;0007;6001;0000;0000;0000;0000;0151
Tor Exit:2620;0007;6001;0000;0000;0000;0000;0152
Tor Exit:2620;0007;6001;0000;0000;0000;0000;0153
Tor Exit:2620;0007;6001;0000;0000;0000;0000;0154
Tor Exit:2620;0007;6001;0000;0000;0000;0000;0155
Tor Exit:2620;0007;6001;0000;0000;0000;0000;0156
Tor Exit:2620;0007;6001;0000;0000;0000;0000;0157
Tor Exit:2620;0007;6001;0000;0000;0000;0000;0158
Tor Exit:2620;0007;6001;0000;0000;0000;0000;0159
Tor Exit:2620;0007;6001;0000;0000;0000;0000;0160
Tor Exit:2620;0007;6001;0000;0000;0000;0000;0161
Tor Exit:2620;0007;6001;0000;0000;0000;0000;0162
Tor Exit:2620;0007;6001;0000;0000;0000;0000;0163
Tor Exit:2620;0007;6001;0000;0000;0000;0000;0164
Tor Exit:2620;0007;6001;0000;0000;0000;0000;0165
Tor Exit:2620;0007;6001;0000;0000;0000;0000;0166
Tor Exit:2620;0007;6001;0000;0000;0000;0000;0167
Tor Exit:2620;0007;6001;0000;0000;0000;0000;0168
Tor Exit:2620;0007;6001;0000;0000;0000;0000;0169
Tor Exit:2620;0007;6001;0000;0000;0000;0000;0170
Tor Exit:2620;0007;6001;0000;0000;0000;0000;0171
Tor Exit:2620;0007;6001;0000;0000;0000;0000;0172
Tor Exit:2620;0007;6001;0000;0000;0000;0000;0173
Tor Exit:2620;0007;6001;0000;0000;0000;0000;0174
Tor Exit:2620;0007;6001;0000;0000;0000;0000;0175
Tor Exit:2620;0007;6001;0000;0000;0000;0000;0176
Tor Exit:2620;0007;6001;0000;0000;0000;0000;0177
Tor Exit:2620;0007;6001;0000;0000;0000;0000;0178
Tor Exit:2620;0007;6001;0000;0000;0000;0000;0179
Tor Exit:2620;0007;6001;0000;0000;0000;0000;0180
Tor Exit:2620;0007;6001;0000;0000;0000;0000;0181
Tor Exit:2620;0007;6001;0000;0000;0000;0000;0182
Tor Exit:2620;0007;6001;0000;0000;0000;0000;0183
Tor Exit:2620;0007;6001;0000;0000;0000;0000;0184
Tor Exit:2620;0007;6001;0000;0000;0000;0000;0185
Tor Exit:2620;0007;6001;0000;0000;0000;0000;0186
Tor Exit:2620;0007;6001;0000;0000;0000;0000;0187
Tor Exit:2620;0007;6001;0000;0000;0000;0000;0188
Tor Exit:2620;0007;6001;0000;0000;0000;0000;0189
Tor Exit:2620;0007;6001;0000;0000;0000;0000;e664
Tor Exit:2620;0007;6001;0000;0000;ffff;c759;e640
Tor Exit:2620;0007;6001;0000;0000;ffff;c759;e641
Tor Exit:2620;0007;6001;0000;0000;ffff;c759;e642
Tor Exit:2620;0007;6001;0000;0000;ffff;c759;e643
Tor Exit:2620;0007;6001;0000;0000;ffff;c759;e644
Tor Exit:2620;0007;6001;0000;0000;ffff;c759;e645
Tor Exit:2620;0007;6001;0000;0000;ffff;c759;e646
Tor Exit:2620;0007;6001;0000;0000;ffff;c759;e647
Tor Exit:2620;0007;6001;0000;0000;ffff;c759;e648
Tor Exit:2620;0007;6001;0000;0000;ffff;c759;e649
Tor Exit:2620;0007;6001;0000;0000;ffff;c759;e64a
Tor Exit:2620;0007;6001;0000;0000;ffff;c759;e64b
Tor Exit:2620;0007;6001;0000;0000;ffff;c759;e64c
Tor Exit:2620;0007;6001;0000;0000;ffff;c759;e64d
Tor Exit:2620;0007;6001;0000;0000;ffff;c759;e64e
Tor Exit:2620;0007;6001;0000;0000;ffff;c759;e64f
Tor Exit:2620;0007;6001;0000;0000;ffff;c759;e650
Tor Exit:2620;0007;6001;0000;0000;ffff;c759;e651
Tor Exit:2620;0007;6001;0000;0000;ffff;c759;e652
Tor Exit:2620;0007;6001;0000;0000;ffff;c759;e653
Tor Exit:2620;0007;6001;0000;0000;ffff;c759;e654
Tor Exit:2620;0007;6001;0000;0000;ffff;c759;e655
Tor Exit:2620;0007;6001;0000;0000;ffff;c759;e656
Tor Exit:2620;0007;6001;0000;0000;ffff;c759;e657
Tor Exit:2620;0007;6001;0000;0000;ffff;c759;e658
Tor Exit:2620;0007;6001;0000;0000;ffff;c759;e659
Tor Exit:2620;0095;4007;0000;0000;0000;0000;0111
Tor Exit:2620;018c;0000;0192;0000;0000;0000;0131
Tor Exit:2620;018c;0000;0192;0000;0000;0000;0132
Tor Exit:2620;018c;0000;0192;0000;0000;0000;0133
Tor Exit:2620;018c;0000;0192;0000;0000;0000;0134
Tor Exit:2620;018c;0000;0192;0000;0000;0000;0135
Tor Exit:2620;018c;0000;0192;0000;0000;0000;0136
Tor Exit:2620;018c;0000;0192;0000;0000;0000;0137
Tor Exit:2620;018c;0000;0192;0000;0000;0000;0138
Tor Exit:2620;018c;0000;0192;0000;0000;0000;0139
Tor Exit:2620;018c;0000;0192;0000;0000;0000;0140
Tor Exit:2620;018c;0000;0192;0000;0000;0000;0141
Tor Exit:2620;018c;0000;0192;0000;0000;0000;0142
Tor Exit:2620;018c;0000;0192;0000;0000;0000;0143
Tor Exit:2620;018c;0000;0192;0000;0000;0000;0144
Tor Exit:2620;018c;0000;0192;0000;0000;0000;0145
Tor Exit:2620;018c;0000;0192;0000;0000;0000;0146
Tor Exit:2620;018c;0000;0192;0000;0000;0000;0147
Tor Exit:2620;018c;0000;0192;0000;0000;0000;0148
Tor Exit:2620;018c;0000;0192;0000;0000;0000;0149
Tor Exit:2620;018c;0000;0192;0000;0000;0000;0150
Tor Exit:2620;018c;0000;0192;0000;0000;0000;0171
Tor Exit:2620;018c;0000;0192;0000;0000;0000;0172
Tor Exit:2620;018c;0000;0192;0000;0000;0000;0173
Tor Exit:2620;018c;0000;0192;0000;0000;0000;0211
Tor Exit:2620;018c;0000;0192;0000;0000;0000;0212
Tor Exit:2620;018c;0000;0192;0000;0000;0000;0213
Tor Exit:2620;018c;0000;0192;0000;0000;0000;0214
Tor Exit:2620;018c;0000;0192;0000;0000;0000;0215
Tor Exit:2620;018c;0000;0192;0000;0000;0000;0216
Tor Exit:2620;018c;0000;0192;0000;0000;0000;0217
Tor Exit:2620;018c;0000;0192;0000;0000;0000;0218
Tor Exit:2620;018c;0000;0192;0000;0000;0000;0219
Tor Exit:2620;018c;0000;0192;0000;0000;0000;0220
Tor Exit:2620;018c;0000;0192;0000;0000;0000;0221
Tor Exit:2620;018c;0000;0192;0000;0000;0000;0222
Tor Exit:2620;018c;0000;0192;0000;0000;0000;0223
Tor Exit:2620;018c;0000;0192;0000;0000;0000;0224
Tor Exit:2620;018c;0000;0192;0000;0000;0000;0225
Tor Exit:2620;018c;0000;0192;0000;0000;0000;0226
Tor Exit:2620;018c;0000;0192;0000;0000;0000;0227
Tor Exit:2620;018c;0000;0192;0000;0000;0000;0228
Tor Exit:2620;018c;0000;0192;0000;0000;0000;0229
Tor Exit:2620;018c;0000;0192;0000;0000;0000;0230
Tor Exit:2800;0ba0;0006;00c1;0000;0000;0000;4858
Tor Exit:2a00;11c0;001b;0aa2;0000;0000;0000;0005
Tor Exit:2a00;11c0;001c;0311;0000;0000;0000;0005
Tor Exit:2a00;11c0;001f;0001;0000;0000;0000;0055
Tor Exit:2a00;1728;000f;000f;000f;000f;c03c;9898
Tor Exit:2a00;1b88;0004;0000;0000;0000;0000;0002
Tor Exit:2a00;1b88;0004;0000;0000;0000;0000;0004
Tor Exit:2a00;1dc0;caff;0015;0000;0000;0000;45dc
Tor Exit:2a00;1dc0;caff;0044;0000;0000;0000;326d
Tor Exit:2a00;1dc0;caff;0073;0000;0000;0000;a568
Tor Exit:2a00;1dc0;caff;0088;0000;0000;0000;b2ec
Tor Exit:2a00;1dc0;caff;008b;0000;0000;0000;24bd
Tor Exit:2a00;1dc0;caff;012c;0000;0000;0000;4d3a
Tor Exit:2a00;1dc0;caff;0138;0000;0000;0000;94d2
Tor Exit:2a00;99a0;0000;1000;0000;0000;0000;0002
Tor Exit:2a00;da00;f23d;8f00;0000;0000;0000;0001
Tor Exit:2a01;05e0;0036;c311;0000;0000;0000;0001
Tor Exit:2a01;05e0;0036;c5cd;0000;0000;0000;0001
Tor Exit:2a01;05e0;0036;cf2a;0000;0000;0000;0001
Tor Exit:2a01;4262;01ab;ffff;0000;0000;0000;0133
Tor Exit:2a01;6340;0002;0501;0000;0000;0000;0010
Tor Exit:2a01;6340;0002;0501;0000;0000;0000;0020
Tor Exit:2a01;7e00;0000;0000;f03c;91ff;fe56;2656
Tor Exit:2a01;7e00;0000;0000;f03c;91ff;fe78;b382
Tor Exit:2a02;0418;6017;0000;0000;0000;0000;0147
Tor Exit:2a02;0418;6017;0000;0000;0000;0000;0148
Tor Exit:2a02;0898;0218;0000;0000;0000;0000;0001
Tor Exit:2a02;0898;0218;0000;0000;0000;0000;0002
Tor Exit:2a02;0ec0;0209;0010;0000;0000;0000;0004
Tor Exit:2a02;16d0;0000;0005;0000;0000;0000;0001
Tor Exit:2a02;2970;1001;0000;0000;0000;0000;004b
Tor Exit:2a02;c207;3002;8283;0000;0000;0000;0001
Tor Exit:2a02;ed06;0000;0000;0000;0000;0000;0222
Tor Exit:2a03;3b40;00fe;03b1;0000;0000;0000;0001
Tor Exit:2a03;4000;0005;065b;388a;15ff;fedc;30d6
Tor Exit:2a03;4000;0006;0614;d803;40ff;fec3;832a
Tor Exit:2a03;4000;0006;102b;c457;f3ff;feb0;a6d0
Tor Exit:2a03;4000;0006;d042;5440;88ff;fedd;4ae5
Tor Exit:2a03;4000;0006;e047;6494;62ff;fe3f;85b8
Tor Exit:2a03;4000;0015;0928;dead;beef;ca1f;1337
Tor Exit:2a03;4000;0017;0a15;d4db;fbff;fef4;8b7b
Tor Exit:2a03;4000;0019;0040;4804;2fff;fe4c;9cc1
Tor Exit:2a03;4000;001d;003d;1827;b1ff;feec;f6b0
Tor Exit:2a03;4000;001d;0b7a;782f;17ff;fef0;a708
Tor Exit:2a03;4000;001e;0081;c835;7dff;fe90;3ed5
Tor Exit:2a03;4000;001e;07d4;84fb;5fff;fef3;9d56
Tor Exit:2a03;4000;0021;0115;8837;15ff;fe14;64cc
Tor Exit:2a03;4000;0021;08a8;dead;beef;ca1f;1337
Tor Exit:2a03;4000;0027;0036;c813;6dff;fe0e;b93e
Tor Exit:2a03;4000;0027;06f8;e466;27ff;fe82;1b2a
Tor Exit:2a03;4000;0028;003e;c4ee;b0ff;fecb;1cde
Tor Exit:2a03;4000;0028;01e8;0000;0000;0000;0069
Tor Exit:2a03;4000;0029;08a9;887f;9eff;feed;09e9
Tor Exit:2a03;4000;002a;00d6;949c;84ff;fe0c;84ba
Tor Exit:2a03;4000;002b;066e;dead;beef;ca1f;1337
Tor Exit:2a03;4000;0037;0003;e842;02ff;feb9;c49c
Tor Exit:2a03;4000;0046;0197;b434;d3ff;fe68;d9e1
Tor Exit:2a03;4000;0048;004d;88c8;8eff;fee8;9d1a
Tor Exit:2a03;4000;0056;0091;480a;eeff;fea8;f9c6
Tor Exit:2a03;4000;0058;007d;0de1;0ea7;dead;beef
Tor Exit:2a03;4000;0062;0008;c855;23ff;fef6;50ee
Tor Exit:2a03;4000;0066;0015;18a0;6bff;fe90;3147
Tor Exit:2a03;4000;0066;0d88;6469;50ff;fe0b;98a8
Tor Exit:2a03;e600;0100;0000;0000;0000;0000;0001
Tor Exit:2a03;e600;0100;0000;0000;0000;0000;0002
Tor Exit:2a03;e600;0100;0000;0000;0000;0000;0003
Tor Exit:2a03;e600;0100;0000;0000;0000;0000;0004
Tor Exit:2a03;e600;0100;0000;0000;0000;0000;0005
Tor Exit:2a03;e600;0100;0000;0000;0000;0000;0006
Tor Exit:2a03;e600;0100;0000;0000;0000;0000;0065
Tor Exit:2a03;e600;0100;0000;0000;0000;0000;0066
Tor Exit:2a03;e600;0100;0000;0000;0000;0000;0067
Tor Exit:2a03;e600;0100;0000;0000;0000;0000;0068
Tor Exit:2a03;e600;0100;0000;0000;0000;0000;0069
Tor Exit:2a03;e600;0100;0000;0000;0000;0000;0070
Tor Exit:2a03;e600;0100;0000;0000;0000;0000;0071
Tor Exit:2a04;52c0;0101;0164;0000;0000;0000;0099
Tor Exit:2a04;52c0;0101;046a;0000;0000;0000;0000
Tor Exit:2a04;52c0;0102;46e0;0000;0000;0000;0001
Tor Exit:2a04;52c0;0103;0412;0000;0000;0000;0001
Tor Exit:2a04;52c0;0103;5acd;0000;0000;0000;0001
Tor Exit:2a04;52c0;0104;31e6;0000;0000;0000;0001
Tor Exit:2a04;52c0;0104;4735;0000;0000;0000;0001
Tor Exit:2a04;52c0;0104;ad97;0000;0000;0000;0001
Tor Exit:2a04;52c0;0104;fe02;0000;0000;0000;0001
Tor Exit:2a04;52c0;0105;78fc;0000;0000;0000;0001
Tor Exit:2a04;52c0;0105;98a3;0000;0000;0000;0001
Tor Exit:2a04;52c0;0107;be74;0000;0000;0000;0001
Tor Exit:2a04;52c0;0108;a34f;0000;0000;0000;0001
Tor Exit:2a04;52c0;0116;e0e3;0000;0000;0000;0001
Tor Exit:2a04;52c0;0119;3f0b;0000;0000;0000;0001
Tor Exit:2a04;52c0;0128;c6e7;50ef;cafe;babe;1337
Tor Exit:2a04;52c0;0130;896e;0000;0000;0000;0001
Tor Exit:2a04;52c0;0130;d285;0000;0000;0000;0001
Tor Exit:2a04;9dc0;0031;0000;0000;0000;c0cc;004d
Tor Exit:2a05;0541;0110;0020;0000;0000;0000;0001
Tor Exit:2a05;0541;0110;003e;0000;0000;0000;0001
Tor Exit:2a05;0541;0112;0031;0000;0000;0000;0001
Tor Exit:2a05;0541;0121;0033;0000;0000;0000;0001
Tor Exit:2a05;0541;0141;002c;0000;0000;0000;0001
Tor Exit:2a05;b0c7;6388;0000;0000;0000;0000;0001
Tor Exit:2a05;b0c7;67c6;0000;0000;0000;0000;0001
Tor Exit:2a05;b0c7;6949;0000;0000;0000;0000;0001
Tor Exit:2a05;b0c7;6bd4;0000;0000;0000;0000;0001
Tor Exit:2a06;0e80;3000;0001;0bad;babe;ca11;0911
Tor Exit:2a06;1280;bee1;0002;0000;0000;ee12;0230
Tor Exit:2a06;1700;0000;0015;0000;0000;0000;0001
Tor Exit:2a06;1700;0000;0015;0000;0000;0000;0002
Tor Exit:2a06;1700;0000;0015;0000;0000;0000;0003
Tor Exit:2a06;1700;0000;0015;0000;0000;0000;0004
Tor Exit:2a06;1700;0000;0016;0000;0000;0000;0001
Tor Exit:2a06;1700;0000;003c;0000;0000;0000;0001
Tor Exit:2a06;1700;0000;0047;0000;0000;0000;0166
Tor Exit:2a06;1700;0000;0050;0000;0000;0000;0011
Tor Exit:2a06;1700;0000;0193;0000;0000;0000;0100
Tor Exit:2a06;1700;0003;0019;0000;0000;0000;0001
Tor Exit:2a06;1700;0003;0034;0000;0000;0000;0001
Tor Exit:2a06;1700;0004;0011;0007;0000;0000;0002
Tor Exit:2a06;1700;0004;0014;0000;0000;0000;0001
Tor Exit:2a06;d380;0000;0103;0000;0000;0000;0062
Tor Exit:2a06;d380;0000;0103;0000;0000;0000;0063
Tor Exit:2a07;0e01;0002;0013;0000;0000;0000;0002
Tor Exit:2a07;0e03;002a;0000;0000;0000;0000;bcde
Tor Exit:2a09;6301;0000;02e1;b492;c29e;f532;42c6
Tor Exit:2a0a;4cc0;0000;0099;c44b;7eff;fe23;de3d
Tor Exit:2a0a;4cc0;0001;0101;a463;1eff;fee1;4874
Tor Exit:2a0a;4cc0;0003;00c6;887f;3dff;feab;e676
Tor Exit:2a0b;f4c0;016c;0001;0000;0000;0000;0001
Tor Exit:2a0b;f4c0;016c;0002;0000;0000;0000;0001
Tor Exit:2a0b;f4c0;016c;0003;0000;0000;0000;0001
Tor Exit:2a0b;f4c0;016c;0004;0000;0000;0000;0001
Tor Exit:2a0b;f4c0;016c;0005;0000;0000;0000;0001
Tor Exit:2a0b;f4c0;016c;0006;0000;0000;0000;0001
Tor Exit:2a0b;f4c0;016c;0007;0000;0000;0000;0001
Tor Exit:2a0b;f4c0;016c;0008;0000;0000;0000;0001
Tor Exit:2a0b;f4c0;016c;0009;0000;0000;0000;0001
Tor Exit:2a0b;f4c0;016c;0010;0000;0000;0000;0001
Tor Exit:2a0b;f4c0;016c;0011;0000;0000;0000;0001
Tor Exit:2a0b;f4c0;016c;0012;0000;0000;0000;0001
Tor Exit:2a0b;f4c0;016c;0013;0000;0000;0000;0001
Tor Exit:2a0b;f4c0;016c;0014;0000;0000;0000;0001
Tor Exit:2a0b;f4c0;016c;0015;0000;0000;0000;0001
Tor Exit:2a0b;f4c0;016c;0016;0000;0000;0000;0001
Tor Exit:2a0b;f4c2;0000;0000;0000;0000;0000;0000
Tor Exit:2a0b;f4c2;0000;0000;0000;0000;0000;0001
Tor Exit:2a0b;f4c2;0000;0000;0000;0000;0000;0002
Tor Exit:2a0b;f4c2;0000;0000;0000;0000;0000;0003
Tor Exit:2a0b;f4c2;0000;0000;0000;0000;0000;0004
Tor Exit:2a0b;f4c2;0000;0000;0000;0000;0000;0005
Tor Exit:2a0b;f4c2;0000;0000;0000;0000;0000;0006
Tor Exit:2a0b;f4c2;0000;0000;0000;0000;0000;0007
Tor Exit:2a0b;f4c2;0000;0000;0000;0000;0000;0008
Tor Exit:2a0b;f4c2;0000;0000;0000;0000;0000;0009
Tor Exit:2a0b;f4c2;0000;0000;0000;0000;0000;0010
Tor Exit:2a0b;f4c2;0000;0000;0000;0000;0000;0011
Tor Exit:2a0b;f4c2;0000;0000;0000;0000;0000;0012
Tor Exit:2a0b;f4c2;0000;0000;0000;0000;0000;0013
Tor Exit:2a0b;f4c2;0000;0000;0000;0000;0000;0014
Tor Exit:2a0b;f4c2;0000;0000;0000;0000;0000;0015
Tor Exit:2a0b;f4c2;0000;0000;0000;0000;0000;0016
Tor Exit:2a0b;f4c2;0000;0000;0000;0000;0000;0017
Tor Exit:2a0b;f4c2;0000;0000;0000;0000;0000;0018
Tor Exit:2a0b;f4c2;0000;0000;0000;0000;0000;0019
Tor Exit:2a0b;f4c2;0000;0000;0000;0000;0000;0020
Tor Exit:2a0b;f4c2;0000;0000;0000;0000;0000;0021
Tor Exit:2a0b;f4c2;0000;0000;0000;0000;0000;0022
Tor Exit:2a0b;f4c2;0000;0000;0000;0000;0000;0023
Tor Exit:2a0b;f4c2;0000;0000;0000;0000;0000;0024
Tor Exit:2a0b;f4c2;0000;0000;0000;0000;0000;0025
Tor Exit:2a0b;f4c2;0000;0000;0000;0000;0000;0026
Tor Exit:2a0b;f4c2;0000;0000;0000;0000;0000;0027
Tor Exit:2a0b;f4c2;0000;0000;0000;0000;0000;0028
Tor Exit:2a0b;f4c2;0000;0000;0000;0000;0000;0029
Tor Exit:2a0b;f4c2;0000;0000;0000;0000;0000;0030
Tor Exit:2a0b;f4c2;0000;0000;0000;0000;0000;0031
Tor Exit:2a0b;f4c2;0001;0000;0000;0000;0000;0128
Tor Exit:2a0b;f4c2;0001;0000;0000;0000;0000;0129
Tor Exit:2a0b;f4c2;0001;0000;0000;0000;0000;0130
Tor Exit:2a0b;f4c2;0001;0000;0000;0000;0000;0132
Tor Exit:2a0b;f4c2;0001;0000;0000;0000;0000;0133
Tor Exit:2a0b;f4c2;0001;0000;0000;0000;0000;0134
Tor Exit:2a0b;f4c2;0001;0000;0000;0000;0000;0135
Tor Exit:2a0b;f4c2;0001;0000;0000;0000;0000;0137
Tor Exit:2a0b;f4c2;0001;0000;0000;0000;0000;0138
Tor Exit:2a0b;f4c2;0001;0000;0000;0000;0000;0139
Tor Exit:2a0b;f4c2;0001;0000;0000;0000;0000;0140
Tor Exit:2a0b;f4c2;0001;0000;0000;0000;0000;0141
Tor Exit:2a0b;f4c2;0001;0000;0000;0000;0000;0142
Tor Exit:2a0b;f4c2;0001;0000;0000;0000;0000;0143
Tor Exit:2a0b;f4c2;0001;0000;0000;0000;0000;0144
Tor Exit:2a0b;f4c2;0001;0000;0000;0000;0000;0145
Tor Exit:2a0b;f4c2;0001;0000;0000;0000;0000;0146
Tor Exit:2a0b;f4c2;0001;0000;0000;0000;0000;0147
Tor Exit:2a0b;f4c2;0001;0000;0000;0000;0000;0148
Tor Exit:2a0b;f4c2;0001;0000;0000;0000;0000;0149
Tor Exit:2a0b;f4c2;0001;0000;0000;0000;0000;0150
Tor Exit:2a0b;f4c2;0001;0000;0000;0000;0000;0151
Tor Exit:2a0b;f4c2;0001;0000;0000;0000;0000;0153
Tor Exit:2a0b;f4c2;0001;0000;0000;0000;0000;0154
Tor Exit:2a0b;f4c2;0001;0000;0000;0000;0000;0155
Tor Exit:2a0b;f4c2;0001;0000;0000;0000;0000;0156
Tor Exit:2a0b;f4c2;0001;0000;0000;0000;0000;0157
Tor Exit:2a0b;f4c2;0001;0000;0000;0000;0000;0158
Tor Exit:2a0b;f4c2;0001;0000;0000;0000;0000;0159
Tor Exit:2a0b;f4c2;0001;0000;0000;0000;0000;0161
Tor Exit:2a0b;f4c2;0001;0000;0000;0000;0000;0162
Tor Exit:2a0b;f4c2;0001;0000;0000;0000;0000;0163
Tor Exit:2a0b;f4c2;0001;0000;0000;0000;0000;0164
Tor Exit:2a0b;f4c2;0001;0000;0000;0000;0000;0165
Tor Exit:2a0b;f4c2;0001;0000;0000;0000;0000;0166
Tor Exit:2a0b;f4c2;0001;0000;0000;0000;0000;0167
Tor Exit:2a0b;f4c2;0001;0000;0000;0000;0000;0168
Tor Exit:2a0b;f4c2;0001;0000;0000;0000;0000;0169
Tor Exit:2a0b;f4c2;0001;0000;0000;0000;0000;0170
Tor Exit:2a0b;f4c2;0001;0000;0000;0000;0000;0171
Tor Exit:2a0b;f4c2;0001;0000;0000;0000;0000;0172
Tor Exit:2a0b;f4c2;0001;0000;0000;0000;0000;0173
Tor Exit:2a0b;f4c2;0001;0000;0000;0000;0000;0174
Tor Exit:2a0b;f4c2;0001;0000;0000;0000;0000;0175
Tor Exit:2a0b;f4c2;0001;0000;0000;0000;0000;0176
Tor Exit:2a0b;f4c2;0001;0000;0000;0000;0000;0177
Tor Exit:2a0b;f4c2;0001;0000;0000;0000;0000;0178
Tor Exit:2a0b;f4c2;0001;0000;0000;0000;0000;0179
Tor Exit:2a0b;f4c2;0001;0000;0000;0000;0000;0180
Tor Exit:2a0b;f4c2;0001;0000;0000;0000;0000;0181
Tor Exit:2a0b;f4c2;0001;0000;0000;0000;0000;0182
Tor Exit:2a0b;f4c2;0001;0000;0000;0000;0000;0183
Tor Exit:2a0b;f4c2;0001;0000;0000;0000;0000;0184
Tor Exit:2a0b;f4c2;0001;0000;0000;0000;0000;0185
Tor Exit:2a0b;f4c2;0001;0000;0000;0000;0000;0186
Tor Exit:2a0b;f4c2;0001;0000;0000;0000;0000;0187
Tor Exit:2a0b;f4c2;0001;0000;0000;0000;0000;0188
Tor Exit:2a0b;f4c2;0001;0000;0000;0000;0000;0189
Tor Exit:2a0b;f4c2;0001;0000;0000;0000;0000;0190
Tor Exit:2a0b;f4c2;0001;0000;0000;0000;0000;0191
Tor Exit:2a0b;f4c2;0002;0000;0000;0000;0000;0032
Tor Exit:2a0b;f4c2;0002;0000;0000;0000;0000;0033
Tor Exit:2a0b;f4c2;0002;0000;0000;0000;0000;0034
Tor Exit:2a0b;f4c2;0002;0000;0000;0000;0000;0035
Tor Exit:2a0b;f4c2;0002;0000;0000;0000;0000;0036
Tor Exit:2a0b;f4c2;0002;0000;0000;0000;0000;0037
Tor Exit:2a0b;f4c2;0002;0000;0000;0000;0000;0038
Tor Exit:2a0b;f4c2;0002;0000;0000;0000;0000;0039
Tor Exit:2a0b;f4c2;0002;0000;0000;0000;0000;0040
Tor Exit:2a0b;f4c2;0002;0000;0000;0000;0000;0041
Tor Exit:2a0b;f4c2;0002;0000;0000;0000;0000;0042
Tor Exit:2a0b;f4c2;0002;0000;0000;0000;0000;0043
Tor Exit:2a0b;f4c2;0002;0000;0000;0000;0000;0044
Tor Exit:2a0b;f4c2;0002;0000;0000;0000;0000;0045
Tor Exit:2a0b;f4c2;0002;0000;0000;0000;0000;0046
Tor Exit:2a0b;f4c2;0002;0000;0000;0000;0000;0047
Tor Exit:2a0b;f4c2;0002;0000;0000;0000;0000;0048
Tor Exit:2a0b;f4c2;0002;0000;0000;0000;0000;0049
Tor Exit:2a0b;f4c2;0002;0000;0000;0000;0000;0050
Tor Exit:2a0b;f4c2;0002;0000;0000;0000;0000;0051
Tor Exit:2a0b;f4c2;0002;0000;0000;0000;0000;0052
Tor Exit:2a0b;f4c2;0002;0000;0000;0000;0000;0053
Tor Exit:2a0b;f4c2;0002;0000;0000;0000;0000;0054
Tor Exit:2a0b;f4c2;0002;0000;0000;0000;0000;0055
Tor Exit:2a0b;f4c2;0002;0000;0000;0000;0000;0056
Tor Exit:2a0b;f4c2;0002;0000;0000;0000;0000;0057
Tor Exit:2a0b;f4c2;0002;0000;0000;0000;0000;0058
Tor Exit:2a0b;f4c2;0002;0000;0000;0000;0000;0059
Tor Exit:2a0b;f4c2;0002;0000;0000;0000;0000;0060
Tor Exit:2a0b;f4c2;0002;0000;0000;0000;0000;0061
Tor Exit:2a0b;f4c2;0002;0000;0000;0000;0000;0062
Tor Exit:2a0b;f4c2;0002;0000;0000;0000;0000;0063
Tor Exit:2a0b;f4c2;0003;0000;0000;0000;0000;0064
Tor Exit:2a0b;f4c2;0003;0000;0000;0000;0000;0065
Tor Exit:2a0b;f4c2;0003;0000;0000;0000;0000;0066
Tor Exit:2a0b;f4c2;0003;0000;0000;0000;0000;0067
Tor Exit:2a0b;f4c2;0003;0000;0000;0000;0000;0068
Tor Exit:2a0b;f4c2;0003;0000;0000;0000;0000;0069
Tor Exit:2a0b;f4c2;0003;0000;0000;0000;0000;0070
Tor Exit:2a0b;f4c2;0003;0000;0000;0000;0000;0071
Tor Exit:2a0b;f4c2;0003;0000;0000;0000;0000;0072
Tor Exit:2a0b;f4c2;0003;0000;0000;0000;0000;0073
Tor Exit:2a0b;f4c2;0003;0000;0000;0000;0000;0074
Tor Exit:2a0b;f4c2;0003;0000;0000;0000;0000;0075
Tor Exit:2a0b;f4c2;0003;0000;0000;0000;0000;0076
Tor Exit:2a0b;f4c2;0003;0000;0000;0000;0000;0077
Tor Exit:2a0b;f4c2;0003;0000;0000;0000;0000;0078
Tor Exit:2a0b;f4c2;0003;0000;0000;0000;0000;0079
Tor Exit:2a0b;f4c2;0003;0000;0000;0000;0000;0080
Tor Exit:2a0b;f4c2;0003;0000;0000;0000;0000;0081
Tor Exit:2a0b;f4c2;0003;0000;0000;0000;0000;0082
Tor Exit:2a0b;f4c2;0003;0000;0000;0000;0000;0083
Tor Exit:2a0b;f4c2;0003;0000;0000;0000;0000;0084
Tor Exit:2a0b;f4c2;0003;0000;0000;0000;0000;0085
Tor Exit:2a0b;f4c2;0003;0000;0000;0000;0000;0086
Tor Exit:2a0b;f4c2;0003;0000;0000;0000;0000;0087
Tor Exit:2a0b;f4c2;0003;0000;0000;0000;0000;0088
Tor Exit:2a0b;f4c2;0003;0000;0000;0000;0000;0089
Tor Exit:2a0b;f4c2;0003;0000;0000;0000;0000;0090
Tor Exit:2a0b;f4c2;0004;0000;0000;0000;0000;0096
Tor Exit:2a0b;f4c2;0004;0000;0000;0000;0000;0097
Tor Exit:2a0b;f4c2;0004;0000;0000;0000;0000;0098
Tor Exit:2a0b;f4c2;0004;0000;0000;0000;0000;0099
Tor Exit:2a0b;f4c2;0004;0000;0000;0000;0000;0100
Tor Exit:2a0b;f4c2;0004;0000;0000;0000;0000;0101
Tor Exit:2a0b;f4c2;0004;0000;0000;0000;0000;0102
Tor Exit:2a0b;f4c2;0004;0000;0000;0000;0000;0103
Tor Exit:2a0b;f4c2;0004;0000;0000;0000;0000;0104
Tor Exit:2a0b;f4c2;0004;0000;0000;0000;0000;0105
Tor Exit:2a0b;f4c2;0004;0000;0000;0000;0000;0106
Tor Exit:2a0b;f4c2;0004;0000;0000;0000;0000;0107
Tor Exit:2a0b;f4c2;0004;0000;0000;0000;0000;0108
Tor Exit:2a0b;f4c2;0004;0000;0000;0000;0000;0109
Tor Exit:2a0b;f4c2;0004;0000;0000;0000;0000;0110
Tor Exit:2a0c;16c2;0500;02de;0000;0000;0000;dea9
Tor Exit:2a0c;16c2;0500;02df;0000;0000;0000;cb37
Tor Exit:2a0c;16c2;0500;02e0;0000;0000;0000;54d9
Tor Exit:2a0c;5cc0;0001;0001;0000;0000;293c;1518
Tor Exit:2a0c;e300;0000;0000;0000;0000;0000;0023
Tor Exit:2a0d;c2c0;0001;0004;0000;0000;0000;0002
Tor Exit:2a0e;4005;1002;ffff;0185;0040;0004;0029
Tor Exit:2a0e;4005;1002;ffff;0185;0040;0004;0038
Tor Exit:2a0e;4005;1002;ffff;0185;0040;0004;0092
Tor Exit:2a0e;4005;1002;ffff;0185;0040;0004;0094
Tor Exit:2a0e;4005;1002;ffff;0185;0040;0004;0095
Tor Exit:2a0e;4005;1002;ffff;0185;0040;0004;0100
Tor Exit:2a0e;4005;1002;ffff;0185;0040;0004;0101
Tor Exit:2a0e;4005;1002;ffff;0185;0040;0004;0132
Tor Exit:2a0e;4005;1002;ffff;0185;0040;0004;0149
Tor Exit:2a0e;97c0;03ea;00bc;0000;0000;0000;0001
Tor Exit:2a0e;97c0;03ea;00fd;0000;0000;0000;0001
Tor Exit:2a0e;97c0;03ea;0372;0000;0000;0000;0001
Tor Exit:2a0e;b107;0dd0;0000;0000;0003;ed78;7632
Tor Exit:2a0e;e701;1198;0000;0000;0000;0000;0001
Tor Exit:2a0e;fa00;0000;001b;0000;0000;0000;0001
Tor Exit:2a0f;5707;aaef;0282;0000;0000;0000;0001
Tor Exit:2a0f;5707;aaef;0390;0000;0000;0000;0001
Tor Exit:2a0f;93c1;0026;01f2;0000;0000;0000;9ce5
Tor Exit:2a0f;9400;7e11;b852;0000;0000;0000;0001
Tor Exit:2a0f;df00;0000;0255;0000;0000;0000;0194
Tor Exit:2a0f;df00;0000;0255;0000;0000;0000;0195
Tor Exit:2a0f;df00;0000;0255;0000;0000;0000;0196
Tor Exit:2a0f;df00;0000;0255;0000;0000;0000;0197
Tor Exit:2a0f;df00;0000;0255;0000;0000;0000;0198
Tor Exit:2a0f;df00;0000;0255;0000;0000;0000;0199
Tor Exit:2a0f;df00;0000;0255;0000;0000;0000;0200
Tor Exit:2a0f;df00;0000;0255;0000;0000;0000;0201
Tor Exit:2a0f;df00;0000;0255;0000;0000;0000;0202
Tor Exit:2a0f;df00;0000;0255;0000;0000;0000;0203
Tor Exit:2a0f;df00;0000;0255;0000;0000;0000;0204
Tor Exit:2a0f;df00;0000;0255;0000;0000;0000;0205
Tor Exit:2a0f;df00;0000;0255;0000;0000;0000;0206
Tor Exit:2a0f;e586;000f;000f;0000;0000;0000;0133
Tor Exit:2a0f;e586;000f;000f;0000;0000;0000;0182
Tor Exit:2a0f;e586;000f;000f;0000;0000;0000;0188
Tor Exit:2a0f;e586;000f;000f;a052;2166;bef9;a432
Tor Exit:2a0f;e586;000f;000f;baa4;d491;90be;dca5
Tor Exit:2a0f;e586;000f;000f;c94a;de42;aac1;9045
Tor Exit:2a10;1fc0;0001;0000;0000;0000;e016;2586
Tor Exit:2a10;c800;0001;9cc6;0000;0000;0000;0001
Tor Exit:2a10;c800;0001;f7f8;0000;01ce;01ce;babe
Tor Exit:2a11;6100;0000;0022;a236;9fff;fe9e;36ea
Tor Exit:2a12;5940;13e2;0000;0000;0000;0000;0002
Tor Exit:2a12;5940;144f;0000;0000;0000;0000;0002
Tor Exit:2a12;5940;52c2;0000;0000;0000;0000;0002
Tor Exit:2a12;5940;9101;0000;0000;0000;0000;0002
Tor Exit:2a12;5940;a896;0000;0000;0000;0000;0002
Tor Exit:2a12;5940;b4db;0000;0000;0000;0000;0002
Tor Exit:2a12;5940;b4dd;0000;0000;0000;0000;0002
Tor Exit:2a12;5940;c826;0000;0000;0000;0000;0002
Tor Exit:2a12;5940;f0a8;0000;0000;0000;0000;0002
Tor Exit:2a12;a800;0001;0001;0194;0026;0192;0161
Tor Exit:2a12;a800;0002;0001;0045;0138;0016;0178
Tor Exit:2a12;a800;0002;0001;0045;0138;0016;0213
Tor Exit:2a12;a800;0002;0001;0045;0141;0215;0116
Tor Exit:2a12;a800;0002;0001;0185;0241;0208;0081
Tor Exit:2a12;bec4;11d3;de9f;0000;0000;0000;0001
Tor Exit:2a12;d8c0;109a;9001;0000;0000;0000;0007
